=== HOME-FEED API AUDIT ===
DATE=2026-06-10 16:56:06
WORK_BRANCH=haskell-home-feed-api-audit-20260610-165603
BASE_BRANCH=haskell-movies-shadow-pager-20260610-152423
MASTER_LEFT_AT=0f9bec0dd6c87fab550968fea1bb9507c98e59cd
HEAD=d97581787ab627b86761f3e1651e43263f7b7725
MASTER_NOT_TOUCHED=YES

=== HOME / FEED RELATED TRACKED FILES ===
app/CatalogApi.hs
app/CryptoHashCompat.hs
app/Main.hs
build-clean-catalog.js
catalog.json
data/home-feed.json
home-feed.json
lib/catalog-cleaner.js
lib/catalog-dedupe.js
lib/catalog-index.js
lib/home-sections.js
public/app.js
public/home.js
public/posters/games/homefront-the-revolution.webp
public/posters/games/homefront-ultimate-edition.webp
public/posters/games/homeworld-3-fleet-command-edition.webp
public/posters/games/homeworld-deserts-of-kharak.webp
public/posters/games/homeworld-remastered-collection.webp
public/posters/games/last-train-home-deluxe-edition.webp
public/posters/games/silent-hill-homecoming.webp
scan-media-catalogs.js
scripts/crawlers/discover-servers.js
scripts/crawlers/fetch-server-links.js
scripts/maintenance/check-servers.js
scripts/maintenance/convert-catalog.js
scripts/maintenance/enrich-catalog.js
scripts/maintenance/split-catalog.js
section-cache.json
section-catalog.json
server.js
tools/details-parity-v1/DETAILS_8L_APPLY_READINESS_DECISION.md

=== NODE HOME-FEED ROUTE HITS ===
lib/catalog-cleaner.js:8:const { buildHomeSections } = require('./home-sections');
lib/catalog-cleaner.js:243:  data.home.sections = buildHomeSections({ movies: data.home.movies, series: data.home.series });
lib/catalog-cleaner.js:261:    movies: toArray(rawCatalog.movies).map(item => cleanOne(item, { posterCache, type: 'movie' })).filter(Boolean),
lib/catalog-cleaner.js:262:    series: toArray(rawCatalog.series).map(item => cleanOne(item, { posterCache, type: 'series' })).filter(Boolean)
lib/catalog-cleaner.js:282:    if (existing?.schemaVersion === APPROVED_SCHEMA_VERSION && existing?.home?.sections) return existing;
lib/catalog-index.js:467:  async function homeFeed(limit = 36, rowSpecs = []) {
lib/catalog-index.js:495:  return { init, initBackground, status, pagedMovies, pagedSeries, search, title, homeFeed, section };
lib/home-sections.js:97:  if (strict.length >= min) return sectionSort(key, strict).slice(0, 240);
lib/home-sections.js:98:  return sectionSort(key, dedupeItems([...strict, ...(fallbackItems || [])])).slice(0, 240);
lib/home-sections.js:154:function sectionSort(key, items) {
lib/home-sections.js:166:function buildHomeSections(items = {}) {
lib/home-sections.js:171:  const sections = {};
lib/home-sections.js:172:  sections.trending = mergeSection('trending', all.filter(item => popularity(item) > 0), all, 12);
lib/home-sections.js:173:  sections.series = sectionSort('series', all.filter(predicates.series)).slice(0, 240);
lib/home-sections.js:174:  sections.new = sectionSort('new', all).slice(0, 240);
lib/home-sections.js:175:  sections.recentlyAdded = sections.new;
lib/home-sections.js:176:  sections.allMovies = sectionSort('allMovies', movies.filter(item => item.approvedForHome && hasArt(item))).slice(0, 300);
lib/home-sections.js:181:    sections[key] = mergeSection(key, strictItems, fallbackItems, MAJOR_FALLBACKS[key] ? 8 : 12);
lib/home-sections.js:183:  return sections;
lib/home-sections.js:187:  buildHomeSections,
lib/home-sections.js:189:  sectionSort,
organize-files.js:21:    'home-feed.json',
public/app.js:880:    Netflix: ['Netflix', 'Netflix Originals', 'Netflix Studios'],
public/app.js:1251:    renderOnlineSections('sm', details || {}, 'tv', show);
public/app.js:1264:    renderOnlineSections('sm', localTitleDetails(show, 'tv'), 'tv', show);
public/app.js:3582:function renderOnlineSections(prefix, details, type, item){
public/app.js:3672:    renderOnlineSections('md', details || {}, movie.type === 'tv' ? 'tv' : 'movie', movie);
public/app.js:3692:    renderOnlineSections('md', localTitleDetails(movie, movie.type === 'tv' ? 'tv' : 'movie'), movie.type === 'tv' ? 'tv' : 'movie', movie);
public/app.js:4226:window.svPrefetchHomeFeedPosters = function(data){
public/app.js:4733:  netflixRow:   ['Netflix Originals','netflixTrack'],
public/app.js:4736:  trendingRow:  ['≡ƒöÑ Trending Now','trendingTrack'],
public/app.js:4950:function svRenderOnlineSections(rows){
public/app.js:5021:    ()=>svOnlineRowsCache&&svRenderOnlineSections(svOnlineRowsCache),
public/downloads.js:199:    const sectionPage = document.getElementById('sectionSection');
public/home.js:3:    { rowId:'netflixRow', trackId:'netflixTrack', sectionKey:'netflix', title:'Netflix Originals' },
public/home.js:6:    { rowId:'trendingRow', trackId:'trendingTrack', sectionKey:'trending', title:'≡ƒöÑ Trending Now' },
public/home.js:21:    { rowId:'netflixRow', trackId:'netflixTrack', sectionKey:'netflix', title:'Netflix Originals' },
public/home.js:24:    { rowId:'trendingRow', trackId:'trendingTrack', sectionKey:'trending', title:'≡ƒöÑ Trending Now' },
public/home.js:70:  var svSectionState = { key:'', page:0, pages:0, items:[] };
public/home.js:238:  function svFetchHomeFeed(limit){
public/home.js:242:    svHomePayloadPromise = fetch(`/api/home-feed?limit=${requestedLimit}`)
public/home.js:252:  const svHomeFeedPrime = svFetchHomeFeed(svWeakDevice ? 12 : 24).catch(()=>null);
public/home.js:264:  function svLoadHomeSections(){
public/home.js:275:      if(typeof svPrefetchHomeFeedPosters === 'function')svPrefetchHomeFeedPosters(data);
public/home.js:298:    return svFetchHomeFeed(svWeakDevice ? 8 : 12)
public/home.js:301:        console.warn('[Homepage] home-feed unavailable, using section APIs:', err.message);
public/home.js:747:    svFetchHomeFeed(SV_EXCLUSIVE_HERO_LIMIT)
public/home.js:761:      svLoadHomeSections().catch(err=>{
public/home.js:776:    svLoadHomeSections().catch(err=>{
public/home.js:782:  svRenderOnlineSections = function(rows){
public/home.js:808:    let page = document.getElementById('sectionSection');
public/home.js:811:    page.id = 'sectionSection';
public/home.js:860:    svSectionState = { key:meta.sectionKey, page:0, pages:1, items:[], rowId };
public/home.js:864:        svSectionState.page = data.page || 0;
public/home.js:865:        svSectionState.pages = data.pages || 1;
public/home.js:866:        svSectionState.items = data.items || [];
public/home.js:867:        svRenderGridProgressive(grid, svSectionState.items, svHomeRenderer, 60);
public/home.js:868:        document.getElementById('sectionLoadWrap').style.display = svSectionState.page + 1 < svSectionState.pages ? 'flex' : 'none';
public/home.js:875:    const nextPage = (svSectionState.page || 0) + 1;
public/home.js:876:    if(nextPage >= svSectionState.pages)return;
public/home.js:877:    fetch(`/api/section/${encodeURIComponent(svSectionState.key)}?page=${nextPage}&limit=60&summary=1`)
public/home.js:880:        svSectionState.page = data.page || nextPage;
public/home.js:885:        document.getElementById('sectionLoadWrap').style.display = svSectionState.page + 1 < (data.pages || svSectionState.pages) ? 'flex' : 'none';
public/home.js:893:      const section = document.getElementById('sectionSection');
public/index.html:142:    <div class="row-header"><div class="row-title"><span class="row-title-accent">≡ƒö┤</span> Netflix Originals</div></div>
public/index.html:158:    <div class="row-header"><div class="row-title">≡ƒöÑ Trending Now</div></div>
public/perf-overrides.js:256:        const section = document.getElementById('sectionSection');
public/search.js:64:    const section = document.getElementById('sectionSection');
public/shadow-api-mode.js:66:      console.log('[SV shadow API downloads+search+sections]', url.pathname + url.search, '->', shadowUrl);
public/shadow-api-mode.js:82:      badge.textContent = 'Haskell Shadow API: downloads + search + sections';
public/sw.js:37:async function brieflyCachedHomeFeed(request) {
public/sw.js:79:  if (url.pathname === '/api/home-feed') {
public/sw.js:80:    event.respondWith(brieflyCachedHomeFeed(request));
scripts/crawlers/discover-bloggerbd-ftp.js:180:    catalog.movies.length;
scripts/crawlers/discover-bloggerbd-ftp.js:218:  catalog.movies.push({
scripts/crawlers/discover-bloggerbd-ftp.js:225:≡ƒôª ${catalog.movies.length}
scripts/crawlers/ftp-scan.js:238:          catalog.movies.push(...movies);
scripts/crawlers/ftp-scan.js:242:          catalog.series.push(...series);
scripts/crawlers/ftp-scan.js:251:  console.log(`\nΓ£ô Done. Movies: ${catalog.movies.length} | Series: ${catalog.series.length}`);
scripts/maintenance/build-database.js:32:  const movies = catalog.movies || [];
scripts/maintenance/check-enrichment.js:5:const moviesWithPoster = catalog.movies.filter(m => m.poster).length;
scripts/maintenance/check-enrichment.js:6:const moviesWithoutPoster = catalog.movies.filter(m => !m.poster).length;
scripts/maintenance/check-enrichment.js:7:const seriesWithPoster = catalog.series.filter(s => s.poster).length;
scripts/maintenance/check-enrichment.js:8:const seriesWithoutPoster = catalog.series.filter(s => !s.poster).length;
scripts/maintenance/check-enrichment.js:10:console.log(`Movies:  ${moviesWithPoster} with poster / ${moviesWithoutPoster} without / ${catalog.movies.length} total`);
scripts/maintenance/check-enrichment.js:11:console.log(`Series:  ${seriesWithPoster} with poster / ${seriesWithoutPoster} without / ${catalog.series.length} total`);
scripts/maintenance/enrich-catalog.js:43:  const movies = catalog.movies;
scripts/maintenance/enrich-catalog.js:44:  const series = catalog.series;
scripts/maintenance/retry-enrich.js:53:  const failedMovies = catalog.movies.filter(m => !m.poster);
scripts/maintenance/retry-enrich.js:54:  const failedSeries = catalog.series.filter(s => !s.poster);
server.js:237:    console.log(`≡ƒôí FTP Catalog loaded: ${ftpCatalog.movies.length} movies, ${ftpCatalog.series.length} series`);
server.js:277:  return ftpCatalog.movies.filter(m => {
server.js:287:  return ftpCatalog.series.filter(s => {
server.js:312:// for it. Homepage/home-feed/software APIs stay untouched.
server.js:1907:  const ftpMovies = (ftpCatalog.movies || [])
server.js:1936:  const ftpSeries = (ftpCatalog.series || [])
server.js:2104:    const raw = (ftpCatalog.series || []).find(item =>
server.js:2133:  const raw = (ftpCatalog.movies || []).find((item, i) =>
server.js:2169:    catalogMovies: ftpCatalog.movies?.length || 0,
server.js:2170:    catalogSeries: ftpCatalog.series?.length || 0,
server.js:2319:const SV_HOME_SECTIONS = [
server.js:2320:  ['netflixRow','netflix','Netflix Originals'],
server.js:2328:  ['trendingRow','trending','≡ƒöÑ Trending Now'], ['seriesRow','series','Series'], ['newRow','new','New to StreamVault'],
server.js:2712:app.get('/api/home-feed', (req, res) => {
server.js:2715:    const rows = SV_HOME_SECTIONS.map(([rowId, sectionKey, title]) => {
server.js:2725:    console.error('/api/home-feed error:', e.message);
tools/details-parity-v1/build-expanded-details-fixture.js:10:const movies = Array.isArray(catalog.movies) ? catalog.movies : [];
tools/details-parity-v1/build-expanded-details-fixture.js:11:const series = Array.isArray(catalog.series) ? catalog.series : [];
tools/movies-parity-v1/build-movies-fixture.js:36:const movies = Array.isArray(catalog.movies) ? catalog.movies : [];

=== HASKELL HOME / SECTION HITS ===
app/CatalogApi.hs:3:module CatalogApi
app/CatalogApi.hs:4:  ( CatalogState
app/CatalogApi.hs:5:  , CatalogCache
app/CatalogApi.hs:6:  , newCatalogCache
app/CatalogApi.hs:7:  , loadCatalogState
app/CatalogApi.hs:8:  , catalogResponseCached
app/CatalogApi.hs:9:  , catalogResponse
app/CatalogApi.hs:33:data CatalogState = CatalogState
app/CatalogApi.hs:35:  , csCatalogMovies :: [Value]
app/CatalogApi.hs:36:  , csCatalogSeries :: [Value]
app/CatalogApi.hs:37:  , csLocalMovies   :: [Value]
app/CatalogApi.hs:38:  , csLocalSeries   :: [Value]
app/CatalogApi.hs:42:type CatalogCache = IORef (Maybe CatalogState)
app/CatalogApi.hs:49:newCatalogCache :: IO CatalogCache
app/CatalogApi.hs:50:newCatalogCache = newIORef Nothing
app/CatalogApi.hs:52:loadCatalogState :: FilePath -> IO CatalogState
app/CatalogApi.hs:53:loadCatalogState root = do
app/CatalogApi.hs:54:  catalog <- readJsonValue (root </> "catalog.json") (Object KM.empty)
app/CatalogApi.hs:57:  localMovies <- buildLocalMovies root posterCache
app/CatalogApi.hs:58:  localSeriesItems <- buildLocalSeries root posterCache
app/CatalogApi.hs:59:  let catalogMovies = dedupeBy titleYearKey (arrayField "movies" catalog)
app/CatalogApi.hs:60:      catalogSeries = dedupeBy titleYearKey (arrayField "series" catalog)
app/CatalogApi.hs:61:  pure CatalogState
app/CatalogApi.hs:63:    , csCatalogMovies = catalogMovies
app/CatalogApi.hs:64:    , csCatalogSeries = catalogSeries
app/CatalogApi.hs:65:    , csLocalMovies = localMovies
app/CatalogApi.hs:66:    , csLocalSeries = localSeriesItems
app/CatalogApi.hs:70:catalogResponseCached :: FilePath -> CatalogCache -> Request -> IO (Maybe Response)
app/CatalogApi.hs:71:catalogResponseCached root cache req
app/CatalogApi.hs:72:  | requestMethod req == "OPTIONS" && nativeCatalogRoute req =
app/CatalogApi.hs:74:  | requestMethod req /= "GET" || not (nativeCatalogRoute req) =
app/CatalogApi.hs:81:          loaded <- try (loadCatalogState root) :: IO (Either SomeException CatalogState)
app/CatalogApi.hs:86:        Right state -> pure (catalogResponse state req)
app/CatalogApi.hs:89:nativeCatalogRoute :: Request -> Bool
app/CatalogApi.hs:90:nativeCatalogRoute req =
app/CatalogApi.hs:93:    , ["api", "movies"]
app/CatalogApi.hs:94:    , ["api", "series"]
app/CatalogApi.hs:96:    || ["api", "section"] `isPrefixOf` pathInfo req
app/CatalogApi.hs:98:catalogResponse :: CatalogState -> Request -> Maybe Response
app/CatalogApi.hs:99:catalogResponse state req
app/CatalogApi.hs:106:  | pathInfo req == ["api", "movies"] =
app/CatalogApi.hs:107:      Just $ jsonResponse [("X-StreamVault-Haskell", "native-movies")]
app/CatalogApi.hs:108:        (moviesResponse state req)
app/CatalogApi.hs:109:  | pathInfo req == ["api", "series"] =
app/CatalogApi.hs:110:      Just $ jsonResponse [("X-StreamVault-Haskell", "native-series")]
app/CatalogApi.hs:111:        (seriesResponse state req)
app/CatalogApi.hs:112:  | ["api", "section"] `isPrefixOf` pathInfo req =
app/CatalogApi.hs:114:        (key:_) -> Just $ jsonResponse [("Cache-Control", "public, max-age=60"), ("X-StreamVault-Haskell", "native-section")]
app/CatalogApi.hs:115:          (sectionResponse state req key)
app/CatalogApi.hs:219:        [ "cartoon", "anime", "animated", "tv cartoon", "cartoon series"
app/CatalogApi.hs:236:buildLocalMovies :: FilePath -> KM.KeyMap Value -> IO [Value]
app/CatalogApi.hs:237:buildLocalMovies root posters = do
app/CatalogApi.hs:238:  files <- listVideoFiles (root </> "movies")
app/CatalogApi.hs:277:buildLocalSeries :: FilePath -> KM.KeyMap Value -> IO [Value]
app/CatalogApi.hs:278:buildLocalSeries root posters = do
app/CatalogApi.hs:279:  movieFiles <- listVideoFiles (root </> "movies")
app/CatalogApi.hs:280:  seriesFiles <- listVideoFiles (root </> "series")
app/CatalogApi.hs:282:      episodes = mapMaybe (uncurry parseLocalEpisode) (zip [offset..] seriesFiles)
app/CatalogApi.hs:284:  pure (map (localSeries posters) grouped)
app/CatalogApi.hs:344:localSeries :: KM.KeyMap Value -> (T.Text, [Episode]) -> Value
app/CatalogApi.hs:345:localSeries posters (showName, eps) =
app/CatalogApi.hs:346:  let key = "__series__" <> showName
app/CatalogApi.hs:464:  let fp = root </> "data" </> "catalogs" </> "downloads-catalog.json"
app/CatalogApi.hs:603:downloadsResponse :: CatalogState -> Request -> Value
app/CatalogApi.hs:628:ftpMovieRouteItems :: CatalogState -> [Value]
app/CatalogApi.hs:646:  | (i, m) <- zip [(0 :: Int)..] (csCatalogMovies state)
app/CatalogApi.hs:655:moviesList :: CatalogState -> [Value]
app/CatalogApi.hs:656:moviesList state =
app/CatalogApi.hs:657:  let local = csLocalMovies state
app/CatalogApi.hs:662:moviesResponse :: CatalogState -> Request -> Value
app/CatalogApi.hs:663:moviesResponse state req =
app/CatalogApi.hs:664:  let base = moviesList state
app/CatalogApi.hs:665:      items = applyBrowseSearch "movies" req base
app/CatalogApi.hs:668:    [ "movies" .= pageItems
app/CatalogApi.hs:674:ftpSeriesRouteItems :: Int -> CatalogState -> [Value]
app/CatalogApi.hs:675:ftpSeriesRouteItems requestedLimit state =
app/CatalogApi.hs:677:        then take (max 0 (requestedLimit - length (csLocalSeries state))) (csCatalogSeries state)
app/CatalogApi.hs:678:        else csCatalogSeries state
app/CatalogApi.hs:679:  in [seriesRouteValue s | s <- raw, not (isCartoonOrAnime s)]
app/CatalogApi.hs:681:seriesRouteValue :: Value -> Value
app/CatalogApi.hs:682:seriesRouteValue s =
app/CatalogApi.hs:692:    , "type" .= String "series"
app/CatalogApi.hs:731:seriesList :: CatalogState -> Request -> [Value]
app/CatalogApi.hs:732:seriesList state req =
app/CatalogApi.hs:736:      local = csLocalSeries state
app/CatalogApi.hs:738:      ftp = filter (\s -> T.toLower (firstText ["name", "title"] s) `notElem` seen) (ftpSeriesRouteItems ftpLimit state)
app/CatalogApi.hs:741:seriesResponse :: CatalogState -> Request -> Value
app/CatalogApi.hs:742:seriesResponse state req =
app/CatalogApi.hs:743:  let allSeries = seriesList state req
app/CatalogApi.hs:749:         let items = applyBrowseSearch "series" req allSeries
app/CatalogApi.hs:751:         in object ["series" .= pageItems, "total" .= total, "page" .= page, "pages" .= pages]
app/CatalogApi.hs:752:       else Array (V.fromList (if requestedLimit > 0 then take requestedLimit allSeries else allSeries))
app/CatalogApi.hs:779:kindMatches "movie" item = fieldText "type" item /= "series"
app/CatalogApi.hs:780:kindMatches "series" item = fieldText "type" item == "series" || field "seasons" item /= Null
app/CatalogApi.hs:804:      source = if field "isMassiveCatalog" item == Bool True then 0 else 260
app/CatalogApi.hs:842:sectionResponse :: CatalogState -> Request -> T.Text -> Value
app/CatalogApi.hs:843:sectionResponse state req key =
app/CatalogApi.hs:846:      list = sectionList state key
app/CatalogApi.hs:858:sectionList :: CatalogState -> T.Text -> [Value]
app/CatalogApi.hs:859:sectionList state key =
app/CatalogApi.hs:860:  let moviesOnly = normalMovieItems state
app/CatalogApi.hs:861:      seriesOnly = normalSeriesItems state
app/CatalogApi.hs:862:      allItems = moviesOnly ++ seriesOnly
app/CatalogApi.hs:863:      pick wordsToFind = homeSort [item | item <- allItems, hasAny (homeText item) wordsToFind]
app/CatalogApi.hs:866:        "series" -> homeSort seriesOnly
app/CatalogApi.hs:867:        "allMovies" -> homeSort moviesOnly
app/CatalogApi.hs:868:        "topRated" -> homeSort [i | i <- allItems, ratingNum i >= 8]
app/CatalogApi.hs:869:        "new" -> byYearDesc (homeSort allItems)
app/CatalogApi.hs:870:        "recentlyAdded" -> byYearDesc (homeSort allItems)
app/CatalogApi.hs:871:        "trending" -> take 300 (homeSort allItems)
app/CatalogApi.hs:872:        "mostWatchedToday" -> take 300 (homeSort allItems)
app/CatalogApi.hs:873:        "netflix" -> take 500 (featuredSection allItems "netflix")
app/CatalogApi.hs:874:        "marvel" -> take 500 (featuredSection allItems "marvel")
app/CatalogApi.hs:875:        "dc" -> take 500 (featuredSection allItems "dc")
app/CatalogApi.hs:876:        "universal" -> studioSection allItems "universal"
app/CatalogApi.hs:877:        "disney" -> studioSection allItems "disney"
app/CatalogApi.hs:878:        "warner" -> studioSection allItems "warner"
app/CatalogApi.hs:879:        "hbo" -> studioSection allItems "hbo"
app/CatalogApi.hs:880:        "apple" -> studioSection allItems "apple"
app/CatalogApi.hs:889:        "nostalgia90s" -> homeSort [i | i <- allItems, yearNum i >= 1990, yearNum i <= 1999]
app/CatalogApi.hs:902:        "hiddenMasterpieces" -> take 500 (homeSort [i | i <- allItems, ratingNum i >= 7, hasArt i])
app/CatalogApi.hs:907:        "comingSoon" -> homeSort [i | i <- allItems, yearNum i >= 2026]
app/CatalogApi.hs:910:        _ -> homeSort allItems
app/CatalogApi.hs:911:  in if null result then take 300 (homeSort allItems) else result
app/CatalogApi.hs:913:normalMovieItems :: CatalogState -> [Value]
app/CatalogApi.hs:915:  let local = map (insertFields [("type", String "movie"), ("_sourceRank", Number 0)]) (csLocalMovies state)
app/CatalogApi.hs:918:          [ "id" .= T.pack ("ftp_home_" ++ show i)
app/CatalogApi.hs:937:        | (i, m) <- zip [(0 :: Int)..] (csCatalogMovies state)
app/CatalogApi.hs:940:  in dedupeBy homeMovieKey (local ++ ftp)
app/CatalogApi.hs:942:normalSeriesItems :: CatalogState -> [Value]
app/CatalogApi.hs:943:normalSeriesItems state =
app/CatalogApi.hs:944:  let local = map (insertFields [("type", String "series"), ("_sourceRank", Number 0)]) (csLocalSeries state)
app/CatalogApi.hs:946:        [ insertFields [("_sourceRank", Number 1), ("id", String (T.pack ("ftp_series_home_" ++ show i))), ("category", textOr "" (field "category" s)), ("language", textOr "" (field "language" s))] (seriesRouteValue s)
app/CatalogApi.hs:947:        | (i, s) <- zip [(0 :: Int)..] (csCatalogSeries state)
app/CatalogApi.hs:956:homeMovieKey :: Value -> T.Text
app/CatalogApi.hs:957:homeMovieKey item =
app/CatalogApi.hs:963:homeText :: Value -> T.Text
app/CatalogApi.hs:964:homeText item =
app/CatalogApi.hs:994:homeSort :: [Value] -> [Value]
app/CatalogApi.hs:995:homeSort =
app/CatalogApi.hs:1002:featuredSection :: [Value] -> T.Text -> [Value]
app/CatalogApi.hs:1003:featuredSection allItems key =
app/CatalogApi.hs:1034:studioSection :: [Value] -> T.Text -> [Value]
app/CatalogApi.hs:1035:studioSection allItems key =
app/Main.hs:38:import CatalogApi (CatalogCache, catalogResponseCached, newCatalogCache)
app/Main.hs:66:  catalogCache <- newCatalogCache
app/Main.hs:71:  runRawServer port (handleClient root catalogCache manager upstream)
app/Main.hs:82:  putStrLn "nativeRoutesEnabled=/api/downloads,/api/movies,/api/series,/api/section/:key"
app/Main.hs:101:handleClient :: FilePath -> CatalogCache -> HC.Manager -> String -> Socket.Socket -> Socket.SockAddr -> IO ()
app/Main.hs:102:handleClient root catalogCache manager upstream conn remote = do
app/Main.hs:116:          nativeResult <- try (catalogResponseCached root catalogCache waiReq) :: IO (Either SomeException (Maybe Response))
streamvault-haskell-backend.cabal:10:      CatalogApi
tools/movies-parity-v1/MoviesContractFixtureReader.hs:7:  text <- readFile "tools/movies-parity-v1/movies-contract-fixture.json"
tools/movies-parity-v1/MoviesContractFixtureReader.hs:14:  putStrLn ("MOVIES_HASKELL_READER_ROWS=" ++ show rows)
tools/movies-parity-v1/MoviesContractFixtureReader.hs:15:  putStrLn ("MOVIES_HASKELL_READER_HAS_ITEMS=" ++ show hasItems)
tools/movies-parity-v1/MoviesContractFixtureReader.hs:16:  putStrLn ("MOVIES_HASKELL_READER_HAS_STREAM_URL=" ++ show hasStreamUrl)
tools/movies-parity-v1/MoviesContractFixtureReader.hs:19:      putStrLn "MOVIES_HASKELL_READER_FAIL"
tools/movies-parity-v1/MoviesContractFixtureReader.hs:21:    else putStrLn "MOVIES_HASKELL_READER_PASS"
tools/movies-parity-v1/MoviesShadowPager.hs:23:  text <- readFile "tools/movies-parity-v1/movies-contract-fixture.json"
tools/movies-parity-v1/MoviesShadowPager.hs:29:  putStrLn ("MOVIES_SHADOW_TOTAL=" ++ show total)
tools/movies-parity-v1/MoviesShadowPager.hs:30:  putStrLn ("MOVIES_SHADOW_PAGE=" ++ show page)
tools/movies-parity-v1/MoviesShadowPager.hs:31:  putStrLn ("MOVIES_SHADOW_LIMIT=" ++ show limitValue)
tools/movies-parity-v1/MoviesShadowPager.hs:32:  putStrLn ("MOVIES_SHADOW_ROWS=" ++ show selectedRows)
tools/movies-parity-v1/MoviesShadowPager.hs:33:  putStrLn ("MOVIES_SHADOW_PAGES=" ++ show pages)
tools/movies-parity-v1/MoviesShadowPager.hs:34:  putStrLn ("{" ++ q "movies" ++ ":[]," ++ q "total" ++ ":" ++ show total ++ "," ++ q "page" ++ ":" ++ show page ++ "," ++ q "pages" ++ ":" ++ show pages ++ "}")
tools/movies-parity-v1/MoviesShadowPager.hs:37:      putStrLn "MOVIES_SHADOW_PAGER_FAIL"
tools/movies-parity-v1/MoviesShadowPager.hs:39:    else putStrLn "MOVIES_SHADOW_PAGER_PASS"

=== CATALOG SUMMARY ONLY ===
CATALOG_MOVIES=22171
CATALOG_SERIES=3431
MOVIE_KEYS=title,filename,year,category,server,streamUrl
SERIES_KEYS=title,category,server,seasons,poster,backdrop,overview,year,rating,genre

=== BASELINE GATES ===
MOVIES_SCHEMA_ROWS=120
MOVIES_SCHEMA_BAD=0
MOVIES_SCHEMA_PASS
Loaded package environment from C:\Users\Mac Mini\AppData\Roaming\ghc\x86_64-mingw32-9.6.7\environments\default
[1 of 2] Compiling Main             ( tools\movies-parity-v1\MoviesShadowPager.hs, tools\movies-parity-v1\MoviesShadowPager.o )
[2 of 2] Linking tools\\movies-parity-v1\\movies-shadow-pager.exe
MOVIES_SHADOW_TOTAL=120
MOVIES_SHADOW_PAGE=0
MOVIES_SHADOW_LIMIT=24
MOVIES_SHADOW_ROWS=24
MOVIES_SHADOW_PAGES=5
{"movies":[],"total":120,"page":0,"pages":5}
MOVIES_SHADOW_PAGER_PASS
SCHEMA_TOTAL=120
SCHEMA_BAD=0
DETAILS_FIXTURE_SCHEMA_PASS
ROUTE_CONTRACT_ROWS=120
ROUTE_CONTRACT_MOVIES=80
ROUTE_CONTRACT_SERIES=40
ROUTE_CONTRACT_BAD=0
DETAILS_ROUTE_CONTRACT_PASS
RESPONSE_SNAPSHOT_ROWS=120
RESPONSE_SNAPSHOT_BAD=0
DETAILS_RESPONSE_SNAPSHOT_PASS

=== CABAL BUILD ALL SAFE CAPTURE ===
cabal : Configuration is affected by the following files:
At line:86 char:1
+ cabal build all *> $cabalTmp
+ ~~~~~~~~~~~~~~~~~~~~~~~~~~~~
    + CategoryInfo          : NotSpecified: (Configuration i...ollowing files::String) [], RemoteException
    + FullyQualifiedErrorId : NativeCommandError
 
- cabal.project
Up to date
EXIT_CODE=0

=== FINAL STATUS BEFORE COMMIT ===
?? tools/home-feed-parity-v1/
